Title: Exco demandes

----

Isexternal: false

----

Externalurl: 

----

Tags: 

----

Mode: composition

----

Linkedspaces: 

----

Composition: [{"content":{"image":["productions\/atelier-prospective\/exco-demandes\/gouvernance.jpg"],"src":"","isdesktoponly":"false","location":"kirby","alt":"","caption":"","link":"","ratio":"","crop":"false","width":"435px","height":"4px","transform":"translate(195px, 150px)","zindex":0,"iscover":"false"},"id":"e04d1237-e2f7-4e15-a0e1-b0e4097cb783","isHidden":false,"type":"image"},{"content":{"image":["productions\/atelier-prospective\/exco-demandes\/heureuzone.jpg"],"src":"","isdesktoponly":"false","location":"kirby","alt":"","caption":"","link":"","ratio":"","crop":"false","width":"405px","height":"4px","transform":"translate(660px, 150px)","zindex":0,"iscover":"false"},"id":"6b197cf7-1f19-44a8-b814-4a7f54d4e55b","isHidden":false,"type":"image"},{"content":{"image":["productions\/atelier-prospective\/exco-demandes\/leasvelt.jpg"],"src":"","isdesktoponly":"false","location":"kirby","alt":"","caption":"","link":"","ratio":"","crop":"false","width":"555px","height":"4px","transform":"translate(1095px, 150px)","zindex":0,"iscover":"false"},"id":"8fafba83-5d9d-4468-9dc9-bc2f20fb2540","isHidden":false,"type":"image"},{"content":{"image":["productions\/atelier-prospective\/exco-demandes\/sobriete.jpg"],"src":"","isdesktoponly":"false","location":"kirby","alt":"","caption":"","link":"","ratio":"","crop":"false","width":"480px","height":"4px","transform":"translate(1680px, 150px)","zindex":0,"iscover":"false"},"id":"6a7d0f03-ec23-4be9-abea-d3d18fdb8dd2","isHidden":false,"type":"image"},{"content":{"image":["productions\/atelier-prospective\/exco-demandes\/territoireregeneratif.jpg"],"src":"","isdesktoponly":"false","location":"kirby","alt":"","caption":"","link":"","ratio":"","crop":"false","width":"495px","height":"4px","transform":"translate(2190px, 150px)","zindex":0,"iscover":"false"},"id":"d4b4663f-6749-484f-a14c-ecb97a6bc891","isHidden":false,"type":"image"},{"content":{"image":["productions\/atelier-prospective\/exco-demandes\/tribu-nation.jpg"],"src":"","isdesktoponly":"false","location":"kirby","alt":"","caption":"","link":"","ratio":"","crop":"false","width":"600px","height":"4px","transform":"translate(2715px, 150px)","zindex":0,"iscover":"false"},"id":"f6b48d29-fa2b-4e7c-9b7e-a5b0ef7abc3c","isHidden":false,"type":"image"},{"content":{"isdesktoponly":"false","text":"couleur-fond:#000\ncouleur-texte:#fff\n\n#### Six demandes fictives","width":"585px","height":"79px","transform":"translate(195px, 45px)","zindex":0,"backgroundcolor":"#000","textcolor":"#fff","refs":"","isintro":"false","isedit":"false"},"id":"1666185499997","isHidden":false,"type":"markdown"},{"content":{"isdesktoponly":"false","text":"**[Retour](\/productions\/atelier-prospective\/)**","width":"120px","height":"78px","transform":"translate(3345px, 150px)","zindex":0,"backgroundcolor":"#fff","textcolor":"#000","refs":"","isintro":"false","isedit":"false"},"id":"1666185561132","isHidden":false,"type":"markdown"}]

----

Layout: free

----

Disablefreelayout: false

----

Isopenspace: false

----

Disablerepresentative: true

----

Isdesktoponly: false

----

Distantid: 

----

Connections: 

----

Seotitle: 

----

Description: 

----

Author: 

----

Published: 2022-10-19

----

Coverthumb: 

----

Coverthumbtransform: 

----

Pagethumbtransform: 

----

Colors: gris

----

Uuid: KXEmjTL5h2isTnu7