<svg width="38" height="38" viewBox="0 0 38 38" fill="none" xmlns="http://www.w3.org/2000/svg">
<path fill-rule="evenodd" clip-rule="evenodd" d="M9.7375 15.7938V28.5H13.775V15.7938H9.7375ZM9.5 11.7563C9.5 13.0625 10.45 14.0125 11.7563 14.0125C13.0625 14.0125 14.0125 13.0625 14.0125 11.7563C14.0125 10.45 13.0625 9.5 11.7563 9.5C10.5688 9.5 9.5 10.45 9.5 11.7563ZM24.4625 28.5H28.2625V20.6625C28.2625 16.7437 25.8875 15.4375 23.6312 15.4375C21.6125 15.4375 20.1875 16.7437 19.8312 17.575V15.7938H16.0312V28.5H20.0687V21.7313C20.0687 19.95 21.2562 19 22.4437 19C23.6312 19 24.4625 19.5937 24.4625 21.6125V28.5Z" fill="white"/>
</svg>
