<svg width="38" height="38" viewBox="0 0 38 38" fill="none" xmlns="http://www.w3.org/2000/svg">
<path fill-rule="evenodd" clip-rule="evenodd" d="M26.2437 13.6562C27.075 13.5375 27.7875 13.4188 28.5 13.0625C28.025 13.8937 27.3125 14.6063 26.4812 15.0813C26.7187 20.6625 22.6813 26.7188 15.4375 26.7188C13.3 26.7188 11.2812 26.0062 9.5 24.9375C11.5187 25.175 13.6563 24.5812 15.0813 23.5125C13.3 23.5125 11.875 22.325 11.4 20.7812C11.9938 20.9 12.5875 20.7813 13.1813 20.6625C11.4 20.1875 10.0938 18.525 10.0938 16.7437C10.6875 16.9812 11.2812 17.2188 11.875 17.2188C10.2125 16.0312 9.61875 13.775 10.6875 11.9938C12.7062 14.3688 15.5563 15.9125 18.7625 16.0312C18.1688 13.6562 20.0687 11.2812 22.5625 11.2812C23.6312 11.2812 24.7 11.7562 25.4125 12.4688C26.3625 12.2313 27.1937 11.9937 27.9062 11.5188C27.6687 12.4688 27.075 13.1813 26.2437 13.6562Z" fill="white"/>
</svg>
