Title: Écologie incontournables

----

Isexternal: false

----

Externalurl: 

----

Tags: 

----

Mode: composition

----

Linkedspaces: 

----

Composition: [{"content":{"isdesktoponly":"false","text":"# L'\u00e9cologie pratique pour designers\nThomas Thibault\nD\u00e9cembre 2022","width":"585px","height":"347px","transform":"translate(120px, 15px)","zindex":0,"backgroundcolor":"#fff","textcolor":"#000","refs":"","isintro":"false","isedit":"false"},"id":"1670078942611","isHidden":false,"type":"markdown"},{"content":{"isdesktoponly":"false","text":"# Une histoire d'\u00e9nergie","width":"585px","height":"202px","transform":"translate(105px, 435px)","zindex":0,"backgroundcolor":"#fff","textcolor":"#000","refs":"","isintro":"false","isedit":"false"},"id":"1670079006713","isHidden":false,"type":"markdown"},{"content":{"isdesktoponly":"false","text":"## \"\u00c9nergie\" ?","width":"585px","height":"101.4px","transform":"translate(105px, 675px)","zindex":0,"backgroundcolor":"#fff","textcolor":"#000","refs":"","isintro":"false","isedit":"false"},"id":"1668098673873","isHidden":false,"type":"markdown"},{"content":{"isdesktoponly":"false","text":"### = la grandeur qui caract\u00e9rise un changement d\u2019\u00e9tat d\u2019un syst\u00e8me","width":"585px","height":"173.5px","transform":"translate(105px, 795px)","zindex":0,"backgroundcolor":"#fff","textcolor":"#000","refs":"","isintro":"false","isedit":"false"},"id":"1670079243454","isHidden":false,"type":"markdown"},{"content":{"isdesktoponly":"false","text":"\u00c9nergie primaire\n\u00c9nergie utile\n\u00c9nergie Finale","width":"585px","height":"133px","transform":"translate(120px, 1005px)","zindex":0,"backgroundcolor":"#fff","textcolor":"#000","refs":"","isintro":"false","isedit":"false"},"id":"1670079642293","isHidden":false,"type":"markdown"},{"content":{"image":["file:\/\/gdBbtq6Pa9OhsYRu"],"src":"","isdesktoponly":"false","location":"kirby","alt":"","caption":"","link":"","ratio":"","crop":"false","width":"885px","height":"4px","transform":"translate(75px, 1185px)","zindex":0,"iscover":"false"},"id":"69291037-6d80-41fa-8dd4-475e83317afa","isHidden":false,"type":"image"},{"content":{"image":["file:\/\/yOvbMLzYMRacBqJK"],"src":"","isdesktoponly":"false","location":"kirby","alt":"","caption":"","link":"","ratio":"","crop":"false","width":"1035px","height":"4px","transform":"translate(1020px, 1440px)","zindex":0,"iscover":"false"},"id":"38c630ec-56b1-4da6-aff5-b2d810bebdae","isHidden":false,"type":"image"},{"content":{"isdesktoponly":"false","text":"### \u00c9nergie renouvelable ?","width":"585px","height":"92.5px","transform":"translate(840px, 660px)","zindex":0,"backgroundcolor":"#fff","textcolor":"#000","refs":"","isintro":"false","isedit":"false"},"id":"1670080174786","isHidden":false,"type":"markdown"},{"content":{"image":["file:\/\/tb8Tvfq8EhJgpvLq"],"src":"","isdesktoponly":"false","location":"kirby","alt":"","caption":"","link":"","ratio":"","crop":"false","width":"780px","height":"4px","transform":"translate(1050px, 765px)","zindex":0,"iscover":"false"},"id":"0df4c2ae-aadf-4e58-868d-f928c7a69986","isHidden":false,"type":"image"},{"content":{"isdesktoponly":"false","text":"[Transition : Jean Baptiste Fressoz Historien.](https:\/\/www.youtube.com\/watch?v=lO0r5O4-2wU&amp;t)","width":"585px","height":"79px","transform":"translate(1050px, 1335px)","zindex":0,"backgroundcolor":"#fff","textcolor":"#000","refs":"","isintro":"false","isedit":"false"},"id":"1670080828823","isHidden":false,"type":"markdown"},{"content":{"isdesktoponly":"false","text":"https:\/\/paleo-energetique.org\/","width":"585px","height":"79px","transform":"translate(1920px, 765px)","zindex":0,"backgroundcolor":"#fff","textcolor":"#000","refs":"","isintro":"false","isedit":"false"},"id":"1670080955175","isHidden":false,"type":"markdown"},{"content":{"isdesktoponly":"false","text":"https:\/\/fr.ulule.com\/retrofutur-vent\/","width":"585px","height":"79px","transform":"translate(1920px, 870px)","zindex":0,"backgroundcolor":"#fff","textcolor":"#000","refs":"","isintro":"false","isedit":"false"},"id":"1670081065669","isHidden":false,"type":"markdown"},{"content":{"image":["file:\/\/060fErrBdLFX4X1c"],"src":"","isdesktoponly":"false","location":"kirby","alt":"","caption":"","link":"","ratio":"","crop":"false","width":"720px","height":"4px","transform":"translate(1920px, 990px)","zindex":0,"iscover":"false"},"id":"125da9e1-d5d9-472c-8eb9-960956227eb3","isHidden":false,"type":"image"},{"content":{"isdesktoponly":"false","text":"## Unit\u00e9s de mesure et ordres de grandeurs","width":"675px","height":"150.8px","transform":"translate(2685px, 720px)","zindex":0,"backgroundcolor":"#fff","textcolor":"#000","refs":"","isintro":"false","isedit":"false"},"id":"1668100278206","isHidden":false,"type":"markdown"},{"content":{"isdesktoponly":"false","text":"Joules (J) = une pomme \u00e0 1 m\u00e8tre\nCalorie 1 Cal = 4J\nWatt = 1J \/ secondes\nKilowatt \/heure 1 KWh = 3,6MJ\nTeP ou MteP = 42GJ = 11 6000KWh\nEquivalent esclave (EE) = 100Kwh\/an","width":"465px","height":"214px","transform":"translate(2685px, 900px)","zindex":0,"backgroundcolor":"#fff","textcolor":"#000","refs":"","isintro":"false","isedit":"false"},"id":"1668098639297","isHidden":false,"type":"markdown"},{"content":{"isdesktoponly":"false","text":"https:\/\/www.youtube.com\/watch?v=S4O5voOCqAQ","width":"840px","height":"564px","transform":"translate(2685px, 1140px)","zindex":0,"backgroundcolor":"#fff","textcolor":"#000","refs":"","isintro":"false","isedit":"false"},"id":"1668098636028","isHidden":false,"type":"markdown"},{"content":{"isdesktoponly":"false","text":"http:\/\/la-revolt.org\/","width":"585px","height":"79px","transform":"translate(3585px, 825px)","zindex":0,"backgroundcolor":"#fff","textcolor":"#000","refs":"","isintro":"false","isedit":"false"},"id":"1668101386706","isHidden":false,"type":"markdown"},{"content":{"isdesktoponly":"false","text":"\ud83d\ude4d\u200d\u2642\ufe0f\ud83d\ude4d\u200d\u2642\ufe0f\ud83d\ude4d\u200d\u2642\ufe0f\ud83d\ude4d\u200d\u2642\ufe0f\ud83d\ude4d\u200d\u2642\ufe0f\ud83d\ude4d\u200d\u2642\ufe0f\ud83d\ude4d\u200d\u2642\ufe0f\ud83d\ude4d\u200d\u2642\ufe0f\ud83d\ude4d\u200d\u2642\ufe0f\ud83d\ude4d\u200d\u2642\ufe0f\ud83d\ude4d\u200d\u2642\ufe0f\ud83d\ude4d\u200d\u2642\ufe0f\ud83d\ude4d\u200d\u2642\ufe0f\ud83d\ude4d\u200d\u2642\ufe0f\ud83d\ude4d\u200d\u2642\ufe0f\ud83d\ude4d\u200d\u2642\ufe0f\ud83d\ude4d\u200d\u2642\ufe0f\ud83d\ude4d\u200d\u2642\ufe0f\ud83d\ude4d\u200d\u2642\ufe0f\ud83d\ude4d\u200d\u2642\ufe0f\ud83d\ude4d\u200d\u2642\ufe0f\ud83d\ude4d\u200d\u2642\ufe0f\ud83d\ude4d\u200d\u2642\ufe0f\ud83d\ude4d\u200d\u2642\ufe0f\ud83d\ude4d\u200d\u2642\ufe0f\ud83d\ude4d\u200d\u2642\ufe0f\ud83d\ude4d\u200d\u2642\ufe0f\ud83d\ude4d\u200d\u2642\ufe0f\ud83d\ude4d\u200d\u2642\ufe0f\ud83d\ude4d\u200d\u2642\ufe0f\ud83d\ude4d\u200d\u2642\ufe0f\ud83d\ude4d\u200d\u2642\ufe0f\ud83d\ude4d\u200d\u2642\ufe0f\ud83d\ude4d\u200d\u2642\ufe0f\ud83d\ude4d\u200d\u2642\ufe0f\ud83d\ude4d\u200d\u2642\ufe0f\ud83d\ude4d\u200d\u2642\ufe0f\ud83d\ude4d\u200d\u2642\ufe0f\ud83d\ude4d\u200d\u2642\ufe0f\ud83d\ude4d\u200d\u2642\ufe0f\ud83d\ude4d\u200d\u2642\ufe0f\ud83d\ude4d\u200d\u2642\ufe0f\ud83d\ude4d\u200d\u2642\ufe0f\ud83d\ude4d\u200d\u2642\ufe0f\ud83d\ude4d\u200d\u2642\ufe0f\ud83d\ude4d\u200d\u2642\ufe0f\ud83d\ude4d\u200d\u2642\ufe0f\ud83d\ude4d\u200d\u2642\ufe0f\ud83d\ude4d\u200d\u2642\ufe0f\ud83d\ude4d\u200d\u2642\ufe0f\ud83d\ude4d\u200d\u2642\ufe0f\ud83d\ude4d\u200d\u2642\ufe0f\ud83d\ude4d\u200d\u2642\ufe0f\ud83d\ude4d\u200d\u2642\ufe0f\ud83d\ude4d\u200d\u2642\ufe0f\ud83d\ude4d\u200d\u2642\ufe0f\ud83d\ude4d\u200d\u2642\ufe0f\ud83d\ude4d\u200d\u2642\ufe0f\ud83d\ude4d\u200d\u2642\ufe0f\ud83d\ude4d\u200d\u2642\ufe0f\ud83d\ude4d\u200d\u2642\ufe0f\ud83d\ude4d\u200d\u2642\ufe0f\ud83d\ude4d\u200d\u2642\ufe0f\ud83d\ude4d\u200d\u2642\ufe0f\ud83d\ude4d\u200d\u2642\ufe0f\ud83d\ude4d\u200d\u2642\ufe0f\ud83d\ude4d\u200d\u2642\ufe0f\ud83d\ude4d\u200d\u2642\ufe0f\ud83d\ude4d\u200d\u2642\ufe0f\ud83d\ude4d\u200d\u2642\ufe0f\ud83d\ude4d\u200d\u2642\ufe0f\ud83d\ude4d\u200d\u2642\ufe0f\ud83d\ude4d\u200d\u2642\ufe0f\ud83d\ude4d\u200d\u2642\ufe0f\ud83d\ude4d\u200d\u2642\ufe0f\ud83d\ude4d\u200d\u2642\ufe0f\ud83d\ude4d\u200d\u2642\ufe0f\ud83d\ude4d\u200d\u2642\ufe0f\ud83d\ude4d\u200d\u2642\ufe0f\ud83d\ude4d\u200d\u2642\ufe0f\ud83d\ude4d\u200d\u2642\ufe0f\ud83d\ude4d\u200d\u2642\ufe0f\ud83d\ude4d\u200d\u2642\ufe0f\ud83d\ude4d\u200d\u2642\ufe0f\ud83d\ude4d\u200d\u2642\ufe0f\ud83d\ude4d\u200d\u2642\ufe0f\ud83d\ude4d\u200d\u2642\ufe0f\ud83d\ude4d\u200d\u2642\ufe0f\ud83d\ude4d\u200d\u2642\ufe0f\ud83d\ude4d\u200d\u2642\ufe0f\ud83d\ude4d\u200d\u2642\ufe0f\ud83d\ude4d\u200d\u2642\ufe0f\ud83d\ude4d\u200d\u2642\ufe0f\ud83d\ude4d\u200d\u2642\ufe0f\ud83d\ude4d\u200d\u2642\ufe0f\ud83d\ude4d\u200d\u2642\ufe0f\ud83d\ude4d\u200d\u2642\ufe0f\ud83d\ude4d\u200d\u2642\ufe0f\ud83d\ude4d\u200d\u2642\ufe0f\ud83d\ude4d\u200d\u2642\ufe0f\ud83d\ude4d\u200d\u2642\ufe0f\ud83d\ude4d\u200d\u2642\ufe0f\ud83d\ude4d\u200d\u2642\ufe0f\ud83d\ude4d\u200d\u2642\ufe0f\ud83d\ude4d\u200d\u2642\ufe0f\ud83d\ude4d\u200d\u2642\ufe0f\ud83d\ude4d\u200d\u2642\ufe0f\ud83d\ude4d\u200d\u2642\ufe0f\ud83d\ude4d\u200d\u2642\ufe0f\ud83d\ude4d\u200d\u2642\ufe0f\ud83d\ude4d\u200d\u2642\ufe0f\ud83d\ude4d\u200d\u2642\ufe0f\ud83d\ude4d\u200d\u2642\ufe0f\ud83d\ude4d\u200d\u2642\ufe0f\ud83d\ude4d\u200d\u2642\ufe0f\ud83d\ude4d\u200d\u2642\ufe0f\ud83d\ude4d\u200d\u2642\ufe0f\ud83d\ude4d\u200d\u2642\ufe0f\ud83d\ude4d\u200d\u2642\ufe0f\ud83d\ude4d\u200d\u2642\ufe0f\ud83d\ude4d\u200d\u2642\ufe0f\ud83d\ude4d\u200d\u2642\ufe0f\ud83d\ude4d\u200d\u2642\ufe0f\ud83d\ude4d\u200d\u2642\ufe0f\ud83d\ude4d\u200d\u2642\ufe0f\ud83d\ude4d\u200d\u2642\ufe0f\ud83d\ude4d\u200d\u2642\ufe0f\ud83d\ude4d\u200d\u2642\ufe0f\ud83d\ude4d\u200d\u2642\ufe0f\ud83d\ude4d\u200d\u2642\ufe0f\ud83d\ude4d\u200d\u2642\ufe0f\ud83d\ude4d\u200d\u2642\ufe0f\ud83d\ude4d\u200d\u2642\ufe0f\ud83d\ude4d\u200d\u2642\ufe0f\ud83d\ude4d\u200d\u2642\ufe0f\ud83d\ude4d\u200d\u2642\ufe0f\ud83d\ude4d\u200d\u2642\ufe0f\ud83d\ude4d\u200d\u2642\ufe0f\ud83d\ude4d\u200d\u2642\ufe0f\ud83d\ude4d\u200d\u2642\ufe0f\ud83d\ude4d\u200d\u2642\ufe0f\ud83d\ude4d\u200d\u2642\ufe0f\ud83d\ude4d\u200d\u2642\ufe0f\ud83d\ude4d\u200d\u2642\ufe0f\ud83d\ude4d\u200d\u2642\ufe0f\ud83d\ude4d\u200d\u2642\ufe0f\ud83d\ude4d\u200d\u2642\ufe0f\ud83d\ude4d\u200d\u2642\ufe0f\ud83d\ude4d\u200d\u2642\ufe0f\ud83d\ude4d\u200d\u2642\ufe0f\ud83d\ude4d\u200d\u2642\ufe0f\ud83d\ude4d\u200d\u2642\ufe0f\ud83d\ude4d\u200d\u2642\ufe0f\ud83d\ude4d\u200d\u2642\ufe0f\ud83d\ude4d\u200d\u2642\ufe0f\ud83d\ude4d\u200d\u2642\ufe0f\ud83d\ude4d\u200d\u2642\ufe0f\ud83d\ude4d\u200d\u2642\ufe0f\ud83d\ude4d\u200d\u2642\ufe0f\ud83d\ude4d\u200d\u2642\ufe0f\ud83d\ude4d\u200d\u2642\ufe0f\ud83d\ude4d\u200d\u2642\ufe0f\ud83d\ude4d\u200d\u2642\ufe0f\ud83d\ude4d\u200d\u2642\ufe0f\ud83d\ude4d\u200d\u2642\ufe0f\ud83d\ude4d\u200d\u2642\ufe0f\ud83d\ude4d\u200d\u2642\ufe0f\ud83d\ude4d\u200d\u2642\ufe0f\ud83d\ude4d\u200d\u2642\ufe0f\ud83d\ude4d\u200d\u2642\ufe0f\ud83d\ude4d\u200d\u2642\ufe0f\ud83d\ude4d\u200d\u2642\ufe0f\ud83d\ude4d\u200d\u2642\ufe0f\ud83d\ude4d\u200d\u2642\ufe0f\ud83d\ude4d\u200d\u2642\ufe0f\ud83d\ude4d\u200d\u2642\ufe0f\ud83d\ude4d\u200d\u2642\ufe0f\ud83d\ude4d\u200d\u2642\ufe0f\ud83d\ude4d\u200d\u2642\ufe0f\ud83d\ude4d\u200d\u2642\ufe0f\ud83d\ude4d\u200d\u2642\ufe0f\ud83d\ude4d\u200d\u2642\ufe0f\ud83d\ude4d\u200d\u2642\ufe0f\ud83d\ude4d\u200d\u2642\ufe0f\ud83d\ude4d\u200d\u2642\ufe0f\ud83d\ude4d\u200d\u2642\ufe0f\ud83d\ude4d\u200d\u2642\ufe0f\ud83d\ude4d\u200d\u2642\ufe0f\ud83d\ude4d\u200d\u2642\ufe0f\ud83d\ude4d\u200d\u2642\ufe0f\ud83d\ude4d\u200d\u2642\ufe0f\ud83d\ude4d\u200d\u2642\ufe0f\ud83d\ude4d\u200d\u2642\ufe0f\ud83d\ude4d\u200d\u2642\ufe0f\ud83d\ude4d\u200d\u2642\ufe0f\ud83d\ude4d\u200d\u2642\ufe0f\ud83d\ude4d\u200d\u2642\ufe0f\ud83d\ude4d\u200d\u2642\ufe0f\ud83d\ude4d\u200d\u2642\ufe0f\ud83d\ude4d\u200d\u2642\ufe0f\ud83d\ude4d\u200d\u2642\ufe0f\ud83d\ude4d\u200d\u2642\ufe0f\ud83d\ude4d\u200d\u2642\ufe0f\ud83d\ude4d\u200d\u2642\ufe0f\ud83d\ude4d\u200d\u2642\ufe0f\ud83d\ude4d\u200d\u2642\ufe0f\ud83d\ude4d\u200d\u2642\ufe0f\ud83d\ude4d\u200d\u2642\ufe0f\ud83d\ude4d\u200d\u2642\ufe0f\ud83d\ude4d\u200d\u2642\ufe0f\ud83d\ude4d\u200d\u2642\ufe0f\ud83d\ude4d\u200d\u2642\ufe0f\ud83d\ude4d\u200d\u2642\ufe0f\ud83d\ude4d\u200d\u2642\ufe0f\ud83d\ude4d\u200d\u2642\ufe0f\ud83d\ude4d\u200d\u2642\ufe0f\ud83d\ude4d\u200d\u2642\ufe0f\ud83d\ude4d\u200d\u2642\ufe0f\ud83d\ude4d\u200d\u2642\ufe0f\ud83d\ude4d\u200d\u2642\ufe0f\ud83d\ude4d\u200d\u2642\ufe0f\ud83d\ude4d\u200d\u2642\ufe0f\ud83d\ude4d\u200d\u2642\ufe0f\ud83d\ude4d\u200d\u2642\ufe0f\ud83d\ude4d\u200d\u2642\ufe0f\ud83d\ude4d\u200d\u2642\ufe0f\ud83d\ude4d\u200d\u2642\ufe0f\ud83d\ude4d\u200d\u2642\ufe0f\ud83d\ude4d\u200d\u2642\ufe0f\ud83d\ude4d\u200d\u2642\ufe0f\ud83d\ude4d\u200d\u2642\ufe0f\ud83d\ude4d\u200d\u2642\ufe0f\ud83d\ude4d\u200d\u2642\ufe0f\ud83d\ude4d\u200d\u2642\ufe0f\ud83d\ude4d\u200d\u2642\ufe0f\ud83d\ude4d\u200d\u2642\ufe0f\ud83d\ude4d\u200d\u2642\ufe0f\ud83d\ude4d\u200d\u2642\ufe0f\ud83d\ude4d\u200d\u2642\ufe0f\ud83d\ude4d\u200d\u2642\ufe0f\ud83d\ude4d\u200d\u2642\ufe0f\ud83d\ude4d\u200d\u2642\ufe0f\ud83d\ude4d\u200d\u2642\ufe0f\ud83d\ude4d\u200d\u2642\ufe0f\ud83d\ude4d\u200d\u2642\ufe0f\ud83d\ude4d\u200d\u2642\ufe0f\ud83d\ude4d\u200d\u2642\ufe0f\ud83d\ude4d\u200d\u2642\ufe0f\ud83d\ude4d\u200d\u2642\ufe0f\ud83d\ude4d\u200d\u2642\ufe0f\ud83d\ude4d\u200d\u2642\ufe0f\ud83d\ude4d\u200d\u2642\ufe0f\ud83d\ude4d\u200d\u2642\ufe0f\ud83d\ude4d\u200d\u2642\ufe0f\ud83d\ude4d\u200d\u2642\ufe0f\ud83d\ude4d\u200d\u2642\ufe0f\ud83d\ude4d\u200d\u2642\ufe0f\ud83d\ude4d\u200d\u2642\ufe0f\ud83d\ude4d\u200d\u2642\ufe0f\ud83d\ude4d\u200d\u2642\ufe0f\ud83d\ude4d\u200d\u2642\ufe0f\ud83d\ude4d\u200d\u2642\ufe0f\ud83d\ude4d\u200d\u2642\ufe0f\ud83d\ude4d\u200d\u2642\ufe0f\ud83d\ude4d\u200d\u2642\ufe0f\ud83d\ude4d\u200d\u2642\ufe0f\ud83d\ude4d\u200d\u2642\ufe0f\ud83d\ude4d\u200d\u2642\ufe0f\ud83d\ude4d\u200d\u2642\ufe0f\ud83d\ude4d\u200d\u2642\ufe0f\ud83d\ude4d\u200d\u2642\ufe0f\ud83d\ude4d\u200d\u2642\ufe0f\ud83d\ude4d\u200d\u2642\ufe0f\ud83d\ude4d\u200d\u2642\ufe0f\ud83d\ude4d\u200d\u2642\ufe0f\ud83d\ude4d\u200d\u2642\ufe0f\ud83d\ude4d\u200d\u2642\ufe0f\ud83d\ude4d\u200d\u2642\ufe0f\ud83d\ude4d\u200d\u2642\ufe0f\ud83d\ude4d\u200d\u2642\ufe0f\ud83d\ude4d\u200d\u2642\ufe0f\ud83d\ude4d\u200d\u2642\ufe0f\ud83d\ude4d\u200d\u2642\ufe0f\ud83d\ude4d\u200d\u2642\ufe0f\ud83d\ude4d\u200d\u2642\ufe0f\ud83d\ude4d\u200d\u2642\ufe0f\ud83d\ude4d\u200d\u2642\ufe0f\ud83d\ude4d\u200d\u2642\ufe0f\ud83d\ude4d\u200d\u2642\ufe0f\ud83d\ude4d\u200d\u2642\ufe0f\ud83d\ude4d\u200d\u2642\ufe0f\ud83d\ude4d\u200d\u2642\ufe0f\ud83d\ude4d\u200d\u2642\ufe0f\ud83d\ude4d\u200d\u2642\ufe0f\ud83d\ude4d\u200d\u2642\ufe0f\ud83d\ude4d\u200d\u2642\ufe0f\ud83d\ude4d\u200d\u2642\ufe0f\ud83d\ude4d\u200d\u2642\ufe0f\ud83d\ude4d\u200d\u2642\ufe0f\ud83d\ude4d\u200d\u2642\ufe0f\ud83d\ude4d\u200d\u2642\ufe0f\ud83d\ude4d\u200d\u2642\ufe0f\ud83d\ude4d\u200d\u2642\ufe0f\ud83d\ude4d\u200d\u2642\ufe0f\ud83d\ude4d\u200d\u2642\ufe0f\ud83d\ude4d\u200d\u2642\ufe0f\ud83d\ude4d\u200d\u2642\ufe0f\ud83d\ude4d\u200d\u2642\ufe0f\ud83d\ude4d\u200d\u2642\ufe0f\ud83d\ude4d\u200d\u2642\ufe0f\ud83d\ude4d\u200d\u2642\ufe0f\ud83d\ude4d\u200d\u2642\ufe0f\ud83d\ude4d\u200d\u2642\ufe0f\ud83d\ude4d\u200d\u2642\ufe0f\ud83d\ude4d\u200d\u2642\ufe0f\ud83d\ude4d\u200d\u2642\ufe0f\ud83d\ude4d\u200d\u2642\ufe0f\ud83d\ude4d\u200d\u2642\ufe0f\ud83d\ude4d\u200d\u2642\ufe0f\ud83d\ude4d\u200d\u2642\ufe0f\ud83d\ude4d\u200d\u2642\ufe0f\ud83d\ude4d\u200d\u2642\ufe0f\ud83d\ude4d\u200d\u2642\ufe0f\ud83d\ude4d\u200d\u2642\ufe0f\ud83d\ude4d\u200d\u2642\ufe0f\ud83d\ude4d\u200d\u2642\ufe0f\ud83d\ude4d\u200d\u2642\ufe0f\ud83d\ude4d\u200d\u2642\ufe0f\ud83d\ude4d\u200d\u2642\ufe0f\ud83d\ude4d\u200d\u2642\ufe0f\ud83d\ude4d\u200d\u2642\ufe0f\ud83d\ude4d\u200d\u2642\ufe0f\ud83d\ude4d\u200d\u2642\ufe0f\ud83d\ude4d\u200d\u2642\ufe0f\ud83d\ude4d\u200d\u2642\ufe0f\ud83d\ude4d\u200d\u2642\ufe0f\ud83d\ude4d\u200d\u2642\ufe0f\ud83d\ude4d\u200d\u2642\ufe0f\ud83d\ude4d\u200d\u2642\ufe0f\ud83d\ude4d\u200d\u2642\ufe0f\ud83d\ude4d\u200d\u2642\ufe0f\ud83d\ude4d\u200d\u2642\ufe0f\ud83d\ude4d\u200d\u2642\ufe0f\ud83d\ude4d\u200d\u2642\ufe0f\ud83d\ude4d\u200d\u2642\ufe0f\ud83d\ude4d\u200d\u2642\ufe0f\ud83d\ude4d\u200d\u2642\ufe0f\ud83d\ude4d\u200d\u2642\ufe0f\ud83d\ude4d\u200d\u2642\ufe0f\ud83d\ude4d\u200d\u2642\ufe0f\ud83d\ude4d\u200d\u2642\ufe0f\ud83d\ude4d\u200d\u2642\ufe0f\ud83d\ude4d\u200d\u2642\ufe0f\ud83d\ude4d\u200d\u2642\ufe0f\ud83d\ude4d\u200d\u2642\ufe0f\ud83d\ude4d\u200d\u2642\ufe0f\ud83d\ude4d\u200d\u2642\ufe0f\ud83d\ude4d\u200d\u2642\ufe0f\ud83d\ude4d\u200d\u2642\ufe0f\ud83d\ude4d\u200d\u2642\ufe0f\ud83d\ude4d\u200d\u2642\ufe0f\ud83d\ude4d\u200d\u2642\ufe0f\ud83d\ude4d\u200d\u2642\ufe0f\ud83d\ude4d\u200d\u2642\ufe0f\ud83d\ude4d\u200d\u2642\ufe0f\ud83d\ude4d\u200d\u2642\ufe0f\ud83d\ude4d\u200d\u2642\ufe0f\ud83d\ude4d\u200d\u2642\ufe0f\ud83d\ude4d\u200d\u2642\ufe0f\ud83d\ude4d\u200d\u2642\ufe0f\ud83d\ude4d\u200d\u2642\ufe0f\ud83d\ude4d\u200d\u2642\ufe0f\ud83d\ude4d\u200d\u2642\ufe0f\ud83d\ude4d\u200d\u2642\ufe0f\ud83d\ude4d\u200d\u2642\ufe0f\ud83d\ude4d\u200d\u2642\ufe0f\ud83d\ude4d\u200d\u2642\ufe0f\ud83d\ude4d\u200d\u2642\ufe0f\ud83d\ude4d\u200d\u2642\ufe0f\ud83d\ude4d\u200d\u2642\ufe0f\ud83d\ude4d\u200d\u2642\ufe0f\ud83d\ude4d\u200d\u2642\ufe0f\ud83d\ude4d\u200d\u2642\ufe0f\ud83d\ude4d\u200d\u2642\ufe0f\ud83d\ude4d\u200d\u2642\ufe0f\ud83d\ude4d\u200d\u2642\ufe0f\ud83d\ude4d\u200d\u2642\ufe0f\ud83d\ude4d\u200d\u2642\ufe0f\ud83d\ude4d\u200d\u2642\ufe0f\ud83d\ude4d\u200d\u2642\ufe0f\ud83d\ude4d\u200d\u2642\ufe0f\ud83d\ude4d\u200d\u2642\ufe0f\ud83d\ude4d\u200d\u2642\ufe0f\ud83d\ude4d\u200d\u2642\ufe0f\ud83d\ude4d\u200d\u2642\ufe0f\ud83d\ude4d\u200d\u2642\ufe0f\ud83d\ude4d\u200d\u2642\ufe0f\ud83d\ude4d\u200d\u2642\ufe0f\ud83d\ude4d\u200d\u2642\ufe0f\ud83d\ude4d\u200d\u2642\ufe0f","width":"720px","height":"403px","transform":"translate(3585px, 930px)","zindex":0,"backgroundcolor":"#fff","textcolor":"#000","refs":"","isintro":"false","isedit":"false"},"id":"1668099182066","isHidden":false,"type":"markdown"},{"content":{"image":["file:\/\/UMJsRmKyrKkWwv5Z"],"src":"","isdesktoponly":"false","location":"kirby","alt":"","caption":"","link":"","ratio":"","crop":"false","width":"570px","height":"4px","transform":"translate(3585px, 1350px)","zindex":0,"iscover":"false"},"id":"8af1e7f8-cbac-4920-a9fb-60e6ba29b49d","isHidden":false,"type":"image"},{"content":{"isdesktoponly":"false","text":"[Un millard \u00e7a fait combien ?](https:\/\/www.languagesandnumbers.com\/articles\/fr\/un-milliard\/)\n[D\u00e9penser la fortune de Musk](https:\/\/www.spend-elon-fortune.com\/)\n[D\u00e9penser la fortune de Bezos](https:\/\/mkorostoff.github.io\/1-pixel-wealth\/) \n[Notre cerveau est fait pour comparer, pas pour compter](https:\/\/theconversation.com\/brains-are-bad-at-big-numbers-making-it-impossible-to-grasp-what-a-million-covid-19-deaths-really-means-179081)","width":"585px","height":"160px","transform":"translate(4350px, 915px)","zindex":0,"backgroundcolor":"#fff","textcolor":"#000","refs":"","isintro":"false","isedit":"false"},"id":"1668100104305","isHidden":false,"type":"markdown"},{"content":{"image":["file:\/\/BAHda9npOzxSlUP6"],"src":"","isdesktoponly":"false","location":"kirby","alt":"","caption":"","link":"","ratio":"","crop":"false","width":"780px","height":"4px","transform":"translate(4350px, 1140px)","zindex":0,"iscover":"false"},"id":"4d121474-77c1-4985-88a5-623cc4dc224b","isHidden":false,"type":"image"},{"content":{"isdesktoponly":"false","text":"# Thermodynamique","width":"615px","height":"127px","transform":"translate(5085px, 750px)","zindex":0,"backgroundcolor":"#fff","textcolor":"#000","refs":"","isintro":"false","isedit":"false"},"id":"1668100360963","isHidden":false,"type":"markdown"},{"content":{"isdesktoponly":"false","text":"## Loi de conservation de l'\u00e9nergie","width":"585px","height":"150.8px","transform":"translate(5085px, 900px)","zindex":0,"backgroundcolor":"#fff","textcolor":"#000","refs":"","isintro":"false","isedit":"false"},"id":"1668100395441","isHidden":false,"type":"markdown"},{"content":{"image":["file:\/\/3FNIV9CxBf0fFcq4"],"src":"","isdesktoponly":"false","location":"kirby","alt":"","caption":"","link":"","ratio":"","crop":"false","width":"525px","height":"4px","transform":"translate(5160px, 1080px)","zindex":0,"iscover":"false"},"id":"094b639a-9688-47e4-94d8-c0261abad7bd","isHidden":false,"type":"image"},{"content":{"isdesktoponly":"false","text":"https:\/\/reconstrained.design\/projects\/gravity-battery","width":"585px","height":"79px","transform":"translate(5160px, 1635px)","zindex":0,"backgroundcolor":"#fff","textcolor":"#000","refs":"","isintro":"false","isedit":"false"},"id":"1668100765299","isHidden":false,"type":"markdown"},{"content":{"isdesktoponly":"false","text":"https:\/\/youtu.be\/2Z9p_I3hhUc","width":"840px","height":"596.667px","transform":"translate(5730px, 810px)","zindex":0,"backgroundcolor":"#fff","textcolor":"#000","refs":"","isintro":"false","isedit":"false"},"id":"1670084354148","isHidden":false,"type":"markdown"},{"content":{"isdesktoponly":"false","text":"https:\/\/youtu.be\/lpGmwNewze8","width":"780px","height":"524px","transform":"translate(5730px, 1395px)","zindex":0,"backgroundcolor":"#fff","textcolor":"#000","refs":"","isintro":"false","isedit":"false"},"id":"1670084594375","isHidden":false,"type":"markdown"},{"content":{"isdesktoponly":"false","text":"## L'entropie d'un corps ne peut qu'augmenter\n\nou\n\n## Toute transformation augmente l\u2019entropie","width":"1065px","height":"232.467px","transform":"translate(6600px, 870px)","zindex":0,"backgroundcolor":"#fff","textcolor":"#000","refs":"","isintro":"false","isedit":"false"},"id":"1668101856525","isHidden":false,"type":"markdown"},{"content":{"isdesktoponly":"false","text":"https:\/\/youtu.be\/tTy7IepAt3k","width":"705px","height":"476.667px","transform":"translate(6600px, 1140px)","zindex":0,"backgroundcolor":"#fff","textcolor":"#000","refs":"","isintro":"false","isedit":"false"},"id":"1670085244339","isHidden":false,"type":"markdown"},{"content":{"isdesktoponly":"false","text":"# Une histoire d'\u00e9conomie","width":"585px","height":"202px","transform":"translate(90px, 2040px)","zindex":0,"backgroundcolor":"#fff","textcolor":"#000","refs":"","isintro":"false","isedit":"false"},"id":"1670085877147","isHidden":false,"type":"markdown"},{"content":{"isdesktoponly":"false","text":"## Effet rebond et paradoxe de Jevons","width":"810px","height":"150.8px","transform":"translate(90px, 2265px)","zindex":0,"backgroundcolor":"#fff","textcolor":"#000","refs":"","isintro":"false","isedit":"false"},"id":"1670086828709","isHidden":false,"type":"markdown"},{"content":{"image":["file:\/\/jh5ya2HjkyAdelJn"],"src":"","isdesktoponly":"false","location":"kirby","alt":"","caption":"","link":"","ratio":"","crop":"false","width":"270px","height":"4px","transform":"translate(90px, 2445px)","zindex":0,"iscover":"false"},"id":"e988e4ab-0a32-458f-9a66-7d3dde5b4469","isHidden":false,"type":"image"},{"content":{"image":["file:\/\/iwh9vM5WHBKbyGAb"],"src":"","isdesktoponly":"false","location":"kirby","alt":"","caption":"","link":"","ratio":"","crop":"false","width":"585px","height":"4px","transform":"translate(390px, 2430px)","zindex":0,"iscover":"false"},"id":"e203c383-1f09-400b-9062-21b61ee4829d","isHidden":false,"type":"image"},{"content":{"image":["file:\/\/CfSpTLQqEGCZBR0w"],"src":"","isdesktoponly":"false","location":"kirby","alt":"","caption":"","link":"","ratio":"","crop":"false","width":"585px","height":"4px","transform":"translate(1005px, 2265px)","zindex":0,"iscover":"false"},"id":"beb65e8d-06ca-409e-ace0-115703703116","isHidden":false,"type":"image"},{"content":{"isdesktoponly":"false","text":"### Effet rebond direct, indirect, syst\u00e9mique","width":"585px","height":"133px","transform":"translate(1005px, 2520px)","zindex":0,"backgroundcolor":"#fff","textcolor":"#000","refs":"","isintro":"false","isedit":"false"},"id":"1670087729415","isHidden":false,"type":"markdown"},{"content":{"image":["file:\/\/ZAnlT2JEJMPHywvN"],"src":"","isdesktoponly":"false","location":"kirby","alt":"","caption":"","link":"","ratio":"","crop":"false","width":"705px","height":"4px","transform":"translate(1005px, 2670px)","zindex":0,"iscover":"false"},"id":"c6d917bb-faa4-4e5b-88f7-eb5e36745126","isHidden":false,"type":"image"},{"content":{"isdesktoponly":"false","text":"### Effets rebonds et efficacit\u00e9 \u00e9nerg\u00e9tique","width":"585px","height":"133px","transform":"translate(1635px, 2265px)","zindex":0,"backgroundcolor":"#fff","textcolor":"#000","refs":"","isintro":"false","isedit":"false"},"id":"1670087911369","isHidden":false,"type":"markdown"},{"content":{"image":["file:\/\/HX4bFf4CWQ1S5FLA"],"src":"","isdesktoponly":"false","location":"kirby","alt":"","caption":"<p><a href=\"https:\/\/solar.lowtechmagazine.com\/fr\/2020\/02\/bedazzled-by-energy-efficiency.html\">https:\/\/solar.lowtechmagazine.com\/fr\/2020\/02\/bedazzled-by-energy-efficiency.html<\/a><\/p>","link":"","ratio":"","crop":"false","width":"585px","height":"94px","transform":"translate(1740px, 2445px)","zindex":0,"iscover":"false"},"id":"adbbbf4e-97cd-4e52-a63e-77263ba9798a","isHidden":false,"type":"image"},{"content":{"isdesktoponly":"false","text":"### Politiques d'inefficacit\u00e9 \u00e9nerg\u00e9tique ?","width":"585px","height":"133px","transform":"translate(1740px, 2820px)","zindex":0,"backgroundcolor":"#fff","textcolor":"#000","refs":"","isintro":"false","isedit":"false"},"id":"1670264186053","isHidden":false,"type":"markdown"},{"content":{"isdesktoponly":"false","text":"https:\/\/praticable.fr\/navecolo\/","width":"585px","height":"79px","transform":"translate(1740px, 2985px)","zindex":0,"backgroundcolor":"#fff","textcolor":"#000","refs":"","isintro":"false","isedit":"false"},"id":"1670088022203","isHidden":false,"type":"markdown"},{"content":{"isdesktoponly":"false","text":"### De l'efficacit\u00e9 \u00e0 la suffisance","width":"585px","height":"133px","transform":"translate(2355px, 2460px)","zindex":0,"backgroundcolor":"#fff","textcolor":"#000","refs":"","isintro":"false","isedit":"false"},"id":"1670264247811","isHidden":false,"type":"markdown"},{"content":{"image":["file:\/\/5EthfojskNh67V03"],"src":"","isdesktoponly":"false","location":"kirby","alt":"","caption":"","link":"","ratio":"","crop":"false","width":"900px","height":"4px","transform":"translate(2370px, 2640px)","zindex":0,"iscover":"false"},"id":"056fdcc1-6f0f-454b-92b5-774d90c85603","isHidden":false,"type":"image"},{"content":{"image":["file:\/\/6jPlLhbHcqzmjLgO"],"src":"","isdesktoponly":"false","location":"kirby","alt":"","caption":"<p><a href=\"https:\/\/la-mode-a-l-envers.loom.fr\/renoncer-confort-marginal-comment-coronavirus-montre-sortir-modele-consommation\/\">https:\/\/la-mode-a-l-envers.loom.fr\/renoncer-confort-marginal-comment-coronavirus-montre-sortir-modele-consommation\/<\/a><\/p>","link":"","ratio":"","crop":"false","width":"915px","height":"94px","transform":"translate(3300px, 2265px)","zindex":0,"iscover":"false"},"id":"edd77705-313f-46e1-9ff0-713d4622a0d4","isHidden":false,"type":"image"},{"content":{"isdesktoponly":"false","text":"Pour poursuivre sur les effets rebonds :\n- [Article de bonpote](https:\/\/bonpote.com\/propos-5-paradoxe-de-jevons-et-effet-rebond\/)\n- [Les effets rebonds du num\u00e9rique](https:\/\/ecoinfo.cnrs.fr\/2015\/12\/23\/les-effets-rebond-du-numerique\/)","width":"585px","height":"137.5px","transform":"translate(2370px, 2985px)","zindex":0,"backgroundcolor":"#fff","textcolor":"#000","refs":"","isintro":"false","isedit":"false"},"id":"1670264562926","isHidden":false,"type":"markdown"},{"content":{"isdesktoponly":"false","text":"## D\u00e9mographie, richesse et consommation","width":"885px","height":"150.8px","transform":"translate(4245px, 2235px)","zindex":0,"backgroundcolor":"#fff","textcolor":"#000","refs":"","isintro":"false","isedit":"false"},"id":"1670264648060","isHidden":false,"type":"markdown"},{"content":{"isdesktoponly":"false","text":"\ud83e\uddd1\u200d\ud83e\udd1d\u200d\ud83e\uddd1\u2192\ud83e\uddd1\u200d\ud83e\udd1d\u200d\ud83e\uddd1\ud83e\uddd1\u200d\ud83e\udd1d\u200d\ud83e\uddd1\ud83e\uddd1\u200d\ud83e\udd1d\u200d\ud83e\uddd1\ud83e\uddd1\u200d\ud83e\udd1d\u200d\ud83e\uddd1\ud83e\uddd1\u200d\ud83e\udd1d\u200d\ud83e\uddd1\ud83e\uddd1\u200d\ud83e\udd1d\u200d\ud83e\uddd1\ud83e\uddd1\u200d\ud83e\udd1d\u200d\ud83e\uddd1\n\ud83d\udca8\u2192\ud83d\udca8\ud83d\udca8\ud83d\udca8\ud83d\udca8\ud83d\udca8\ud83d\udca8\ud83d\udca8\ud83d\udca8\ud83d\udca8\ud83d\udca8\ud83d\udca8\ud83d\udca8\ud83d\udca8\ud83d\udca8\ud83d\udca8\ud83d\udca8\ud83d\udca8\ud83d\udca8\ud83d\udca8\ud83d\udca8\ud83d\udca8\ud83d\udca8\ud83d\udca8\ud83d\udca8\ud83d\udca8\ud83d\udca8\ud83d\udca8\ud83d\udca8\ud83d\udca8\ud83d\udca8\ud83d\udca8\ud83d\udca8\ud83d\udca8\ud83d\udca8\ud83d\udca8\ud83d\udca8\ud83d\udca8\ud83d\udca8\ud83d\udca8\ud83d\udca8\ud83d\udca8\ud83d\udca8\ud83d\udca8\ud83d\udca8\ud83d\udca8\ud83d\udca8\ud83d\udca8\ud83d\udca8\ud83d\udca8\ud83d\udca8\ud83d\udca8\ud83d\udca8\ud83d\udca8\ud83d\udca8\ud83d\udca8\ud83d\udca8\ud83d\udca8\ud83d\udca8\ud83d\udca8\ud83d\udca8\ud83d\udca8\ud83d\udca8\ud83d\udca8\ud83d\udca8\ud83d\udca8\ud83d\udca8\ud83d\udca8\ud83d\udca8\ud83d\udca8\ud83d\udca8\ud83d\udca8\ud83d\udca8\ud83d\udca8\ud83d\udca8\ud83d\udca8\ud83d\udca8\ud83d\udca8\ud83d\udca8\ud83d\udca8\ud83d\udca8\ud83d\udca8\ud83d\udca8\ud83d\udca8\ud83d\udca8\ud83d\udca8\ud83d\udca8\ud83d\udca8\ud83d\udca8\ud83d\udca8\ud83d\udca8\ud83d\udca8\ud83d\udca8\ud83d\udca8\ud83d\udca8\ud83d\udca8\ud83d\udca8\ud83d\udca8\ud83d\udca8\ud83d\udca8\ud83d\udca8\ud83d\udca8\ud83d\udca8\ud83d\udca8\ud83d\udca8\ud83d\udca8\ud83d\udca8\ud83d\udca8\ud83d\udca8\ud83d\udca8\ud83d\udca8\ud83d\udca8\ud83d\udca8\ud83d\udca8\ud83d\udca8\ud83d\udca8\ud83d\udca8\ud83d\udca8\ud83d\udca8\ud83d\udca8\ud83d\udca8\ud83d\udca8\ud83d\udca8\ud83d\udca8\ud83d\udca8\ud83d\udca8\ud83d\udca8\ud83d\udca8\ud83d\udca8\ud83d\udca8\ud83d\udca8\ud83d\udca8\ud83d\udca8\ud83d\udca8\ud83d\udca8\ud83d\udca8\ud83d\udca8\ud83d\udca8\ud83d\udca8\ud83d\udca8\ud83d\udca8\ud83d\udca8\ud83d\udca8\ud83d\udca8\ud83d\udca8\ud83d\udca8\ud83d\udca8\ud83d\udca8\ud83d\udca8\ud83d\udca8\ud83d\udca8\ud83d\udca8\ud83d\udca8\ud83d\udca8\ud83d\udca8\ud83d\udca8\ud83d\udca8\ud83d\udca8\ud83d\udca8\ud83d\udca8\ud83d\udca8\ud83d\udca8\ud83d\udca8\ud83d\udca8\ud83d\udca8\ud83d\udca8\ud83d\udca8\ud83d\udca8\ud83d\udca8\ud83d\udca8\ud83d\udca8\ud83d\udca8\ud83d\udca8\ud83d\udca8\ud83d\udca8\ud83d\udca8\ud83d\udca8\ud83d\udca8\ud83d\udca8\ud83d\udca8\ud83d\udca8\ud83d\udca8\ud83d\udca8\ud83d\udca8\ud83d\udca8\ud83d\udca8\ud83d\udca8\ud83d\udca8\ud83d\udca8\ud83d\udca8\ud83d\udca8\ud83d\udca8\ud83d\udca8\ud83d\udca8\ud83d\udca8\ud83d\udca8\ud83d\udca8\ud83d\udca8\ud83d\udca8\ud83d\udca8\ud83d\udca8\ud83d\udca8\ud83d\udca8\ud83d\udca8\ud83d\udca8\ud83d\udca8\ud83d\udca8\ud83d\udca8\ud83d\udca8\ud83d\udca8\ud83d\udca8\ud83d\udca8\ud83d\udca8\ud83d\udca8\ud83d\udca8\ud83d\udca8\ud83d\udca8\ud83d\udca8\ud83d\udca8\ud83d\udca8\ud83d\udca8\ud83d\udca8\ud83d\udca8\ud83d\udca8\ud83d\udca8\ud83d\udca8\ud83d\udca8\ud83d\udca8\ud83d\udca8\ud83d\udca8\ud83d\udca8\ud83d\udca8\ud83d\udca8\ud83d\udca8\ud83d\udca8\ud83d\udca8\ud83d\udca8\ud83d\udca8\ud83d\udca8\ud83d\udca8\ud83d\udca8\ud83d\udca8\ud83d\udca8\ud83d\udca8\ud83d\udca8\ud83d\udca8\ud83d\udca8\ud83d\udca8\ud83d\udca8\ud83d\udca8\ud83d\udca8\ud83d\udca8\ud83d\udca8\ud83d\udca8\ud83d\udca8\ud83d\udca8\ud83d\udca8\ud83d\udca8\ud83d\udca8\ud83d\udca8\ud83d\udca8\ud83d\udca8\ud83d\udca8\ud83d\udca8\ud83d\udca8\ud83d\udca8\ud83d\udca8\ud83d\udca8\ud83d\udca8\ud83d\udca8\ud83d\udca8\ud83d\udca8\ud83d\udca8\ud83d\udca8\ud83d\udca8\ud83d\udca8\ud83d\udca8\ud83d\udca8\ud83d\udca8\ud83d\udca8\ud83d\udca8\ud83d\udca8\ud83d\udca8\ud83d\udca8\ud83d\udca8\ud83d\udca8\ud83d\udca8\ud83d\udca8\ud83d\udca8\ud83d\udca8\ud83d\udca8\ud83d\udca8\ud83d\udca8\ud83d\udca8\ud83d\udca8\ud83d\udca8\ud83d\udca8\ud83d\udca8\ud83d\udca8\ud83d\udca8\ud83d\udca8\ud83d\udca8\ud83d\udca8\ud83d\udca8\ud83d\udca8\ud83d\udca8\ud83d\udca8\ud83d\udca8\ud83d\udca8\ud83d\udca8\ud83d\udca8\ud83d\udca8\ud83d\udca8\ud83d\udca8\ud83d\udca8\ud83d\udca8\ud83d\udca8\ud83d\udca8\ud83d\udca8\ud83d\udca8\ud83d\udca8\ud83d\udca8\ud83d\udca8\ud83d\udca8\ud83d\udca8\ud83d\udca8\ud83d\udca8\ud83d\udca8\ud83d\udca8\ud83d\udca8\ud83d\udca8\ud83d\udca8\ud83d\udca8\ud83d\udca8\ud83d\udca8\ud83d\udca8\ud83d\udca8\ud83d\udca8\ud83d\udca8\ud83d\udca8\ud83d\udca8\ud83d\udca8\ud83d\udca8\ud83d\udca8\ud83d\udca8\ud83d\udca8\ud83d\udca8\ud83d\udca8\ud83d\udca8\ud83d\udca8\ud83d\udca8\ud83d\udca8\ud83d\udca8\ud83d\udca8\ud83d\udca8\ud83d\udca8\ud83d\udca8\ud83d\udca8\ud83d\udca8\ud83d\udca8\ud83d\udca8\ud83d\udca8\ud83d\udca8\ud83d\udca8\ud83d\udca8\ud83d\udca8\ud83d\udca8\ud83d\udca8\ud83d\udca8\ud83d\udca8\ud83d\udca8\ud83d\udca8\ud83d\udca8\ud83d\udca8\ud83d\udca8\ud83d\udca8\ud83d\udca8\ud83d\udca8\ud83d\udca8\ud83d\udca8\ud83d\udca8\ud83d\udca8\ud83d\udca8\ud83d\udca8\ud83d\udca8\ud83d\udca8\ud83d\udca8\ud83d\udca8\ud83d\udca8\ud83d\udca8\ud83d\udca8\ud83d\udca8\ud83d\udca8\ud83d\udca8\ud83d\udca8\ud83d\udca8\ud83d\udca8\ud83d\udca8\ud83d\udca8\ud83d\udca8\ud83d\udca8\ud83d\udca8\ud83d\udca8\ud83d\udca8\ud83d\udca8\ud83d\udca8\ud83d\udca8\ud83d\udca8\ud83d\udca8\ud83d\udca8\ud83d\udca8\ud83d\udca8\ud83d\udca8\ud83d\udca8\ud83d\udca8\ud83d\udca8\ud83d\udca8\ud83d\udca8\ud83d\udca8\ud83d\udca8\ud83d\udca8\ud83d\udca8\ud83d\udca8\ud83d\udca8\ud83d\udca8\ud83d\udca8\ud83d\udca8\ud83d\udca8\ud83d\udca8\ud83d\udca8\ud83d\udca8\ud83d\udca8\ud83d\udca8\ud83d\udca8\ud83d\udca8\ud83d\udca8\ud83d\udca8\ud83d\udca8\ud83d\udca8\ud83d\udca8\ud83d\udca8\ud83d\udca8\ud83d\udca8\ud83d\udca8\ud83d\udca8\ud83d\udca8\ud83d\udca8\ud83d\udca8\ud83d\udca8\ud83d\udca8\ud83d\udca8\ud83d\udca8\ud83d\udca8\ud83d\udca8\ud83d\udca8\ud83d\udca8\ud83d\udca8\ud83d\udca8\ud83d\udca8\ud83d\udca8\ud83d\udca8\ud83d\udca8\ud83d\udca8\ud83d\udca8\ud83d\udca8\ud83d\udca8\ud83d\udca8\ud83d\udca8\ud83d\udca8\ud83d\udca8\ud83d\udca8\ud83d\udca8\ud83d\udca8\ud83d\udca8\ud83d\udca8\ud83d\udca8\ud83d\udca8\ud83d\udca8\ud83d\udca8\ud83d\udca8\ud83d\udca8\ud83d\udca8\ud83d\udca8\ud83d\udca8\ud83d\udca8\ud83d\udca8\ud83d\udca8\ud83d\udca8\ud83d\udca8\ud83d\udca8\ud83d\udca8\ud83d\udca8\ud83d\udca8\ud83d\udca8\ud83d\udca8\ud83d\udca8\ud83d\udca8\ud83d\udca8\ud83d\udca8\ud83d\udca8\ud83d\udca8\ud83d\udca8\ud83d\udca8\ud83d\udca8\ud83d\udca8\ud83d\udca8\ud83d\udca8\ud83d\udca8\ud83d\udca8\ud83d\udca8\ud83d\udca8\ud83d\udca8\ud83d\udca8\ud83d\udca8\ud83d\udca8\ud83d\udca8\ud83d\udca8\ud83d\udca8\ud83d\udca8\ud83d\udca8\ud83d\udca8\ud83d\udca8\ud83d\udca8\ud83d\udca8\ud83d\udca8\ud83d\udca8\ud83d\udca8\ud83d\udca8\ud83d\udca8\ud83d\udca8\ud83d\udca8\ud83d\udca8\ud83d\udca8\ud83d\udca8\ud83d\udca8\ud83d\udca8\ud83d\udca8\ud83d\udca8\ud83d\udca8\ud83d\udca8\ud83d\udca8\ud83d\udca8\ud83d\udca8\ud83d\udca8\ud83d\udca8\ud83d\udca8\ud83d\udca8\ud83d\udca8\ud83d\udca8\ud83d\udca8\ud83d\udca8\ud83d\udca8\ud83d\udca8\ud83d\udca8\ud83d\udca8\ud83d\udca8\ud83d\udca8\ud83d\udca8\ud83d\udca8\ud83d\udca8\ud83d\udca8\ud83d\udca8\ud83d\udca8\ud83d\udca8\ud83d\udca8\ud83d\udca8\ud83d\udca8\ud83d\udca8\ud83d\udca8\ud83d\udca8\ud83d\udca8\ud83d\udca8\ud83d\udca8\ud83d\udca8\ud83d\udca8\ud83d\udca8\ud83d\udca8\ud83d\udca8\ud83d\udca8\ud83d\udca8\ud83d\udca8\ud83d\udca8\ud83d\udca8\ud83d\udca8\ud83d\udca8\ud83d\udca8\ud83d\udca8\ud83d\udca8\ud83d\udca8\ud83d\udca8\ud83d\udca8\ud83d\udca8\ud83d\udca8\ud83d\udca8\ud83d\udca8\ud83d\udca8\ud83d\udca8\ud83d\udca8\ud83d\udca8\ud83d\udca8\ud83d\udca8\ud83d\udca8\ud83d\udca8\ud83d\udca8\ud83d\udca8\ud83d\udca8\ud83d\udca8\ud83d\udca8\ud83d\udca8\ud83d\udca8\ud83d\udca8\ud83d\udca8\ud83d\udca8\ud83d\udca8\ud83d\udca8\ud83d\udca8\ud83d\udca8\ud83d\udca8\ud83d\udca8\ud83d\udca8\ud83d\udca8\ud83d\udca8\ud83d\udca8\ud83d\udca8\ud83d\udca8\ud83d\udca8\ud83d\udca8\ud83d\udca8\ud83d\udca8\ud83d\udca8\ud83d\udca8\ud83d\udca8\ud83d\udca8\ud83d\udca8\ud83d\udca8\ud83d\udca8\ud83d\udca8\ud83d\udca8\ud83d\udca8\ud83d\udca8\ud83d\udca8\ud83d\udca8\ud83d\udca8\ud83d\udca8\ud83d\udca8\ud83d\udca8\ud83d\udca8\ud83d\udca8\ud83d\udca8\ud83d\udca8\ud83d\udca8\ud83d\udca8\ud83d\udca8\ud83d\udca8\ud83d\udca8\ud83d\udca8","width":"870px","height":"619px","transform":"translate(4245px, 2430px)","zindex":0,"backgroundcolor":"#fff","textcolor":"#000","refs":"","isintro":"false","isedit":"false"},"id":"1670264790969","isHidden":false,"type":"markdown"},{"content":{"image":["file:\/\/dK4PN1rPPDVZmyLC"],"src":"","isdesktoponly":"false","location":"kirby","alt":"","caption":"","link":"","ratio":"","crop":"false","width":"645px","height":"541.333px","transform":"translate(5160px, 2250px)","zindex":0,"iscover":"false"},"id":"f1b5faf6-a750-45b3-b4a1-fc7e2ed3d5db","isHidden":false,"type":"image"},{"content":{"image":["file:\/\/HJEsFO5Qlg9qVc0F"],"src":"","isdesktoponly":"false","location":"kirby","alt":"","caption":"","link":"","ratio":"","crop":"false","width":"645px","height":"416.367px","transform":"translate(5160px, 2805px)","zindex":0,"iscover":"false"},"id":"e2b95d50-226f-4df4-86b2-11381d3eaee3","isHidden":false,"type":"image"},{"content":{"image":["file:\/\/RP2CireMKNV3Kbg2"],"src":"","isdesktoponly":"false","location":"kirby","alt":"","caption":"","link":"","ratio":"","crop":"false","width":"660px","height":"4px","transform":"translate(5850px, 2235px)","zindex":0,"iscover":"false"},"id":"5c00bd7d-ead3-459c-a907-425f33e13fc3","isHidden":false,"type":"image"},{"content":{"isdesktoponly":"false","text":"### \u00c9conomie circulaire ?","width":"585px","height":"92.5px","transform":"translate(5850px, 2805px)","zindex":0,"backgroundcolor":"#fff","textcolor":"#000","refs":"","isintro":"false","isedit":"false"},"id":"1670450574318","isHidden":false,"type":"markdown"},{"content":{"isdesktoponly":"false","text":"# Une histoire de carbone","width":"585px","height":"202px","transform":"translate(75px, 3300px)","zindex":0,"backgroundcolor":"#fff","textcolor":"#000","refs":"","isintro":"false","isedit":"false"},"id":"1670270309225","isHidden":false,"type":"markdown"},{"content":{"image":["file:\/\/4XRlhfT0a7xgxpI9"],"src":"","isdesktoponly":"false","location":"kirby","alt":"","caption":"","link":"","ratio":"","crop":"false","width":"585px","height":"4px","transform":"translate(75px, 3540px)","zindex":0,"iscover":"false"},"id":"dcfa578f-ed43-409f-82d6-3ea2d6c8c5e5","isHidden":false,"type":"image"},{"content":{"isdesktoponly":"false","text":"### GES, Co2, eqCo2, PRG etc","width":"585px","height":"92.5px","transform":"translate(75px, 4290px)","zindex":0,"backgroundcolor":"#fff","textcolor":"#000","refs":"","isintro":"false","isedit":"false"},"id":"1670271203836","isHidden":false,"type":"markdown"},{"content":{"image":["file:\/\/0PoENbZZpXAZaPF9"],"src":"","isdesktoponly":"false","location":"kirby","alt":"","caption":"","link":"","ratio":"","crop":"false","width":"675px","height":"4px","transform":"translate(690px, 3540px)","zindex":0,"iscover":"false"},"id":"422e7c06-7d48-4bb9-ad0c-6c3abd8e43ba","isHidden":false,"type":"image"},{"content":{"image":["file:\/\/7ZdDUF0aDqXNqfU4"],"src":"","isdesktoponly":"false","location":"kirby","alt":"","caption":"","link":"","ratio":"","crop":"false","width":"585px","height":"4px","transform":"translate(690px, 3960px)","zindex":0,"iscover":"false"},"id":"4b5b76d6-1719-49df-8a59-c42dfec1ffee","isHidden":false,"type":"image"},{"content":{"isdesktoponly":"false","text":"### eCO2\n### Co2eq","width":"180px","height":"145px","transform":"translate(1395px, 3540px)","zindex":0,"backgroundcolor":"#fff","textcolor":"#000","refs":"","isintro":"false","isedit":"false"},"id":"1670271633131","isHidden":false,"type":"markdown"},{"content":{"isdesktoponly":"false","text":"CO\u00b2 : Anthopoc\u00e8ne ou capitaloc\u00e8ne ?","width":"585px","height":"79px","transform":"translate(1395px, 3705px)","zindex":0,"backgroundcolor":"#fff","textcolor":"#000","refs":"","isintro":"false","isedit":"false"},"id":"1670271745501","isHidden":false,"type":"markdown"},{"content":{"image":["file:\/\/JhYpc1HlRpKKyaqb"],"src":"","isdesktoponly":"false","location":"kirby","alt":"","caption":"","link":"","ratio":"","crop":"false","width":"585px","height":"4px","transform":"translate(1395px, 3810px)","zindex":0,"iscover":"false"},"id":"ed571231-d37e-47ad-9fe3-f9f60b112712","isHidden":false,"type":"image"},{"content":{"image":["file:\/\/eGLsbYq64x1rb7Wu"],"src":"","isdesktoponly":"false","location":"kirby","alt":"","caption":"","link":"","ratio":"","crop":"false","width":"585px","height":"4px","transform":"translate(1395px, 4200px)","zindex":0,"iscover":"false"},"id":"fa7f5d67-dde5-4c3d-b928-29247b7ca88b","isHidden":false,"type":"image"},{"content":{"image":["file:\/\/epXEAMBHZAV5eJ0m"],"src":"","isdesktoponly":"false","location":"kirby","alt":"","caption":"","link":"","ratio":"","crop":"false","width":"660px","height":"599.05px","transform":"translate(1995px, 3525px)","zindex":0,"iscover":"false"},"id":"14285ce7-a01d-4b87-953d-1a3c8c128cbc","isHidden":false,"type":"image"},{"content":{"image":["file:\/\/aixxNPaJI27p5yrw"],"src":"","isdesktoponly":"false","location":"kirby","alt":"","caption":"","link":"","ratio":"","crop":"false","width":"660px","height":"506.683px","transform":"translate(1995px, 4080px)","zindex":0,"iscover":"false"},"id":"a6859018-4ca4-4f0a-92f1-ce3abded9f70","isHidden":false,"type":"image"},{"content":{"image":["file:\/\/DPelS9v98ePKGYNs"],"src":"","isdesktoponly":"false","location":"kirby","alt":"","caption":"","link":"","ratio":"","crop":"false","width":"480px","height":"544.133px","transform":"translate(2670px, 3525px)","zindex":0,"iscover":"false"},"id":"9f49c827-975c-4d95-a1be-1b24cebac56d","isHidden":false,"type":"image"},{"content":{"image":["file:\/\/O7EnzGhs1nDxleWX"],"src":"","isdesktoponly":"false","location":"kirby","alt":"","caption":"","link":"","ratio":"","crop":"false","width":"495px","height":"630px","transform":"translate(2670px, 3990px)","zindex":0,"iscover":"false"},"id":"d4ee0fc7-4187-4abe-b45e-4e3ad6544e14","isHidden":false,"type":"image"},{"content":{"image":["file:\/\/hQrfSBjrMS5YlRDY"],"src":"","isdesktoponly":"false","location":"kirby","alt":"","caption":"","link":"","ratio":"","crop":"false","width":"645px","height":"4px","transform":"translate(3180px, 3525px)","zindex":0,"iscover":"false"},"id":"bc0af2da-00ca-4a77-9ae7-174cc23f2668","isHidden":false,"type":"image"},{"content":{"image":["file:\/\/ZeYHXRGkKhol2roq"],"src":"","isdesktoponly":"false","location":"kirby","alt":"","caption":"","link":"","ratio":"","crop":"false","width":"720px","height":"4px","transform":"translate(3180px, 4005px)","zindex":0,"iscover":"false"},"id":"6665b522-2cb2-45fc-a3da-ec19b36ab097","isHidden":false,"type":"image"},{"content":{"image":["file:\/\/TpXmdCMMq8lJUDAs"],"src":"","isdesktoponly":"false","location":"kirby","alt":"","caption":"","link":"","ratio":"","crop":"false","width":"450px","height":"585px","transform":"translate(3855px, 3525px)","zindex":0,"iscover":"false"},"id":"b73b7631-4697-4440-ae3b-0725ac9dc445","isHidden":false,"type":"image"},{"content":{"image":["file:\/\/ZGvEFKxPW7yaBPPR"],"src":"","isdesktoponly":"false","location":"kirby","alt":"","caption":"","link":"","ratio":"","crop":"false","width":"585px","height":"4px","transform":"translate(3915px, 4080px)","zindex":0,"iscover":"false"},"id":"74c81ce2-5533-4dc6-bcf9-15d3012597c4","isHidden":false,"type":"image"},{"content":{"image":["file:\/\/RogT2gNoEWcIUMu3"],"src":"","isdesktoponly":"false","location":"kirby","alt":"","caption":"","link":"","ratio":"","crop":"false","width":"915px","height":"529.433px","transform":"translate(4335px, 3525px)","zindex":0,"iscover":"false"},"id":"9f764978-4a3c-4613-9586-3dfc3617b490","isHidden":false,"type":"image"},{"content":{"image":["file:\/\/6YkEbA2MWC8cVWCg"],"src":"","isdesktoponly":"false","location":"kirby","alt":"","caption":"","link":"","ratio":"","crop":"false","width":"825px","height":"4px","transform":"translate(4560px, 4050px)","zindex":0,"iscover":"false"},"id":"aed71860-e961-499f-a0f7-cf862e86d7fc","isHidden":false,"type":"image"},{"content":{"image":["file:\/\/sazatk4pmuMChz3K"],"src":"","isdesktoponly":"false","location":"kirby","alt":"","caption":"","link":"","ratio":"","crop":"false","width":"855px","height":"4px","transform":"translate(5280px, 3525px)","zindex":0,"iscover":"false"},"id":"bf385eb4-7f87-4447-853a-49733468bf0c","isHidden":false,"type":"image"},{"content":{"image":["file:\/\/SkP3vPSZpS6T6ZR1"],"src":"","isdesktoponly":"false","location":"kirby","alt":"","caption":"","link":"","ratio":"","crop":"false","width":"645px","height":"4px","transform":"translate(6165px, 3525px)","zindex":0,"iscover":"false"},"id":"2bf168f8-7d7b-41f9-91f0-4486a46e90d8","isHidden":false,"type":"image"},{"content":{"image":["file:\/\/63nKdZuQQAVvVukT"],"src":"","isdesktoponly":"false","location":"kirby","alt":"","caption":"","link":"","ratio":"","crop":"false","width":"645px","height":"4px","transform":"translate(6165px, 4005px)","zindex":0,"iscover":"false"},"id":"be14e713-6aa5-40fa-a509-9c62b8d1cf83","isHidden":false,"type":"image"},{"content":{"image":["file:\/\/uUwgzS09CdtltnVG"],"src":"","isdesktoponly":"false","location":"kirby","alt":"","caption":"<p><a href=\"https:\/\/impactco2.fr\/usagenumerique\">https:\/\/impactco2.fr\/usagenumerique<\/a><\/p>","link":"","ratio":"","crop":"false","width":"585px","height":"73px","transform":"translate(6825px, 3525px)","zindex":0,"iscover":"false"},"id":"90f86172-65e0-4a07-9165-d553888388d5","isHidden":false,"type":"image"},{"content":{"isdesktoponly":"false","text":"[Calculer son empreinte carbone](https:\/\/datagir.ademe.fr\/apps\/nos-gestes-climat\/)","width":"360px","height":"79px","transform":"translate(6825px, 4140px)","zindex":0,"backgroundcolor":"#fff","textcolor":"#000","refs":"","isintro":"false","isedit":"false"},"id":"1670272970487","isHidden":false,"type":"markdown"},{"content":{"isdesktoponly":"false","text":"## Leviers pour designers","width":"585px","height":"101.4px","transform":"translate(75px, 5070px)","zindex":0,"backgroundcolor":"#fff","textcolor":"#000","refs":"","isintro":"false","isedit":"false"},"id":"1670273192405","isHidden":false,"type":"markdown"},{"content":{"image":["file:\/\/GDH9BcjvvFFBTjiO"],"src":"","isdesktoponly":"false","location":"kirby","alt":"","caption":"","link":"","ratio":"","crop":"false","width":"585px","height":"506.667px","transform":"translate(75px, 5220px)","zindex":0,"iscover":"false"},"id":"42bedef0-fccb-4e85-832e-e3368da72f1b","isHidden":false,"type":"image"},{"content":{"image":["file:\/\/BpPgIZMEWpyXpyVq"],"src":"","isdesktoponly":"false","location":"kirby","alt":"","caption":"","link":"","ratio":"","crop":"false","width":"750px","height":"4px","transform":"translate(690px, 5175px)","zindex":0,"iscover":"false"},"id":"a6a784e4-659d-473b-8236-7a4c119829c6","isHidden":false,"type":"image"},{"content":{"image":["file:\/\/xihrVySjAocu3uzy"],"src":"","isdesktoponly":"false","location":"kirby","alt":"","caption":"","link":"","ratio":"","crop":"false","width":"750px","height":"4px","transform":"translate(675px, 5685px)","zindex":0,"iscover":"false"},"id":"a249f221-bd29-4f2e-83f1-445c7e087426","isHidden":false,"type":"image"},{"content":{"image":["file:\/\/Po3jzqAEfJCCPf6v"],"src":"","isdesktoponly":"false","location":"kirby","alt":"","caption":"","link":"","ratio":"","crop":"false","width":"645px","height":"4px","transform":"translate(1455px, 5175px)","zindex":0,"iscover":"false"},"id":"2af20253-f6e8-4983-8a12-87ba543cdde3","isHidden":false,"type":"image"},{"content":{"image":["file:\/\/EMcTbHxpVWQPOpp5"],"src":"","isdesktoponly":"false","location":"kirby","alt":"","caption":"","link":"","ratio":"","crop":"false","width":"750px","height":"4px","transform":"translate(1455px, 5865px)","zindex":0,"iscover":"false"},"id":"8634c048-a9c1-455d-8198-ab66cfa7ecff","isHidden":false,"type":"image"},{"content":{"image":["file:\/\/cQ8yArKemntcnpV7"],"src":"","isdesktoponly":"false","location":"kirby","alt":"","caption":"<p><a href=\"http:\/\/www.fieldwork.archi\/halle-climat\/\">fieldwork.archi\/halle-climat<\/a><\/p>","link":"","ratio":"","crop":"false","width":"990px","height":"73px","transform":"translate(2130px, 5175px)","zindex":0,"iscover":"false"},"id":"9268d7fb-3be9-4e0d-8420-a751a3bd9b5b","isHidden":false,"type":"image"},{"content":{"isdesktoponly":"false","text":"### Des questions de design","width":"585px","height":"92.5px","transform":"translate(2400px, 5865px)","zindex":0,"backgroundcolor":"#fff","textcolor":"#000","refs":"","isintro":"false","isedit":"false"},"id":"1670452423771","isHidden":false,"type":"markdown"},{"content":{"isdesktoponly":"false","text":"**[Les meilleures sources sur l\u2019Environnement et le Climat, tous niveaux confondus !](https:\/\/bonpote.com\/les-meilleures-sources-sur-lenvironnement-et-le-climat-tous-niveaux-confondus\/)**\n\n[**Les livres incontournables sur l\u2019Environnement et le Climat**](https:\/\/bonpote.com\/les-livres-incontournables-sur-lenvironnement-et-le-climat\/)","width":"720px","height":"114px","transform":"translate(2700px, 6075px)","zindex":0,"backgroundcolor":"#fff","textcolor":"#000","refs":"","isintro":"false","isedit":"false"},"id":"1670450911349","isHidden":false,"type":"markdown"},{"content":{"isdesktoponly":"false","text":"**[La newsletter Le Trouviste](https:\/\/trouviste.substack.com)\n[La newsletter Limites Num\u00e9riques](https:\/\/limitesnumeriques.substack.com\/)**","width":"585px","height":"106px","transform":"translate(3210px, 5790px)","zindex":0,"backgroundcolor":"#fff","textcolor":"#000","refs":"","isintro":"false","isedit":"false"},"id":"1670275583174","isHidden":false,"type":"markdown"}]

----

Layout: vertical

----

Disablefreelayout: true

----

Isopenspace: false

----

Disablerepresentative: false

----

Isdesktoponly: false

----

Distantid: 

----

Connections: 

----

Seotitle: 

----

Description: 

----

Author: 

----

Published: 2022-11-10

----

Coverthumb: 

----

Coverthumbtransform: 

----

Pagethumbtransform: 

----

Colors: gris

----

Uuid: 1peYjZShFgFktw0d